IIDDA API Operations — ops • iidda.api
…
#>  38  -- a number Not reportable
#>  39  -- a number Not reportable
#>  49  -- a number Not reportable
#> ... ... ........ ..............
#> See problems(...) for more details.
#> Warning: 74 parsing failures.
#> row col expected         actual
#>   9  -- a number Not reportable
#>  10  -- a number Not reportable
#>  27  -- a number Not reportable
#>  38  -- a number Not reportable
#>  39  -- a number Not reportable
#> ... ... ........ ..............
#> See problems(...) for more details.
#> # A tibble: 1,232 × 16
#>    cases_cum_median_prev_5_years cases_cum_prev_year cases_cum_report_year
#>                            <dbl>               <dbl>                 <dbl>
#>  1                          1415                 921                   927
#>  2                            NA                  NA                    NA
#>  3                            NA                  NA                    NA
#>  4                            NA                  NA                    NA
#>  5                            NA                  NA                    NA
#>  6                            NA                  NA                    NA
#>  7                            NA                  NA                    NA
#>  8                            NA                  NA                    NA
#>  9                            NA                  NA                    NA
#> 10                            NA                  NA                    NA
#> # ℹ 1,222 more rows
#> # ℹ 13 more variables: cases_median_prev_5_years <dbl>,
#> #   cases_prev_period <dbl>, cases_this_period <dbl>, dataset_id <chr>,
#> #   digitization_id <chr>, historical_disease <chr>,
#> #   historical_disease_subclass <chr>, location <chr>, location_type <chr>,
#> #   period_end_date <date>, period_start_date <date>, scan_id <chr>,
#> #   time_scale <chr>
…
