plot_rohani • iidda.analysis
…
## Warning: 1208 parsing failures.
## row col expected         actual
##   9  -- a number Not reportable
##  10  -- a number Not reportable
##  27  -- a number Not reportable
##  38  -- a number Not reportable
##  39  -- a number Not reportable
## ... ... ........ ..............
## See problems(...) for more details.

raw

## # A tibble: 16,016 × 15
##    cases_cum_median_prev_5_years cases_cum_prev_year cases_cum_report_year
##                            <dbl>               <dbl>                 <dbl>
##  1                          1415                 921                   927
##  2                            NA                  NA                    NA
##  3                            NA                  NA                    NA
##  4                            NA                  NA                    NA
##  5                            NA                  NA                    NA
##  6                            NA                  NA                    NA
##  7                            NA                  NA                    NA
##  8                            NA                  NA                    NA
##  9                            NA                  NA                    NA
## 10                            NA                  NA                    NA
## # ℹ 16,006 more rows
## # ℹ 12 more variables: cases_median_prev_5_years <dbl>,
## #   cases_prev_period <dbl>, cases_this_period <dbl>, digitization_id <chr>,
## #   historical_disease <chr>, historical_disease_subclass <chr>,
## #   location <chr>, location_type <chr>, period_end_date <date>,
## #   period_start_date <date>, scan_id <chr>, time_scale <chr>
…
## The following objects are masked from 'package:base':
## 
##     intersect, setdiff, setequal, union

measles = (raw
  %>% filter(tolower(historical_disease) == "measles")
  %>% filter(time_scale == "wk", location_type == "province")
  %>% select(location, period_start_date, cases_this_period)
  %>% mutate(period_start_date = as.Date(period_start_date))
  %>% mutate(cases_this_period = as.numeric(cases_this_period))
)
measles

## # A tibble: 520 × 3
##    location period_start_date cases_this_period
##    <chr>    <date>                        <dbl>
##  1 NFLD.    1956-01-01                       55
##  2 P.E.I.   1956-01-01                       69
##  3 N.S      1956-01-01                       86
##  4 N.B.     1956-01-01                        0
##  5 QUE.     1956-01-01                       95
##  6 ONT.     1956-01-01                     1188
##  7 MAN.     1956-01-01                       11
##  8 SASK.    1956-01-01                        1
##  9 ALTA.    1956-01-01                       47
## 10 B.C.     1956-01-01                       22
## # ℹ 510 more rows
…
